<?xml version="1.0" encoding="utf-8"?>
<!-- Generator: Adobe Illustrator 16.0.0, SVG Export Plug-In . SVG Version: 6.00 Build 0)  -->
<!DOCTYPE svg PUBLIC "-//W3C//DTD SVG 1.1//EN" "http://www.w3.org/Graphics/SVG/1.1/DTD/svg11.dtd">
<svg version="1.1" id="BW_copy" xmlns="http://www.w3.org/2000/svg" xmlns:xlink="http://www.w3.org/1999/xlink" x="0px" y="0px"
	 width="159px" height="44px" viewBox="-16.245 -4.671 159 44" enable-background="new -16.245 -4.671 159 44" xml:space="preserve"
	>
<g>
	<g>
		<g opacity="0.99">
			<path fill="#777777" d="M123.247-0.281c1.141,0,2.425,0.579,3.104,1.423l11.868,14.334c0.932,1.102,1.414,1.881,0.135,3.58
				l-11.895,14.31c-0.511,0.665-1.501,1.548-3.188,1.548l-128.976,0.02c-2.214,0-3.904-1.929-3.904-3.909l0.026-27.443
				c0-2.093,1.704-3.863,3.81-3.863C-3.669-0.281,123.247-0.281,123.247-0.281 M123.247-3.411H-5.772
				c-3.827,0-6.941,3.139-6.941,6.993l-0.031,27.44c0,3.818,3.226,7.048,7.04,7.048l128.979-0.024c2.264,0,4.258-0.961,5.631-2.715
				l11.859-14.268l0.051-0.062l0.05-0.067c2.828-3.79,0.608-6.454-0.243-7.469L128.773-0.845
				C127.5-2.405,125.338-3.411,123.247-3.411L123.247-3.411z"/>
		</g>
		<g opacity="0.99">
			<g>
				<path fill="#777777" d="M53.125,8.694c0,0,0-0.316,0.338-0.364c1.184-0.16,3.733-0.271,4.321-0.271
					c0.828,0,1.663,0.066,2.506,0.191c0.845,0.127,1.597,0.38,2.272,0.755c0.673,0.379,1.223,0.905,1.654,1.576
					c0.426,0.675,0.641,1.563,0.641,2.675c0,0.975-0.187,1.803-0.553,2.487c-0.37,0.694-0.86,1.252-1.477,1.681
					c-0.613,0.427-1.309,0.737-2.092,0.94c-0.779,0.201-1.592,0.299-2.421,0.299c-0.071,0-0.201,0-0.377,0
					c-0.178,0-0.366,0-0.563-0.011c-0.201-0.009-0.384-0.021-0.567-0.033c-0.18-0.019-0.312-0.029-0.397-0.046v5.236h-3.287V8.694
					L53.125,8.694z M58.114,10.787c-0.328,0-0.653,0.008-0.956,0.024c-0.316,0.011-0.556,0.047-0.747,0.096v4.923
					c0.058,0.009,0.165,0.032,0.306,0.05c0.141,0.014,0.288,0.028,0.449,0.033c0.161,0.007,0.304,0.015,0.442,0.021
					c0.128,0.012,0.241,0.012,0.319,0.012c0.457,0,0.914-0.027,1.368-0.091c0.458-0.068,0.867-0.201,1.223-0.405
					c0.354-0.199,0.647-0.486,0.864-0.843c0.221-0.351,0.333-0.834,0.333-1.431c0-0.5-0.104-0.907-0.307-1.212
					c-0.205-0.312-0.479-0.553-0.82-0.73c-0.339-0.168-0.726-0.291-1.162-0.351C58.993,10.816,58.554,10.787,58.114,10.787z"/>
			</g>
			<g>
				<path fill="#777777" d="M66.293,13.123c0.661-0.288,1.464-0.529,2.42-0.719c0.958-0.19,1.938-0.282,2.959-0.282
					c0.802,0,1.478,0.093,2.021,0.282c0.547,0.189,0.98,0.463,1.303,0.821c0.318,0.358,0.549,0.787,0.686,1.287
					c0.135,0.502,0.205,1.058,0.205,1.674c0,0.741-0.021,1.474-0.089,2.204c-0.051,0.729-0.081,1.508-0.081,2.317
					c0,0.561,0.034,1.091,0.107,1.622c0.074,0.519,0.189,1.021,0.351,1.5h-2.492l-0.395-1.604c0,0-0.045-0.189-0.211-0.24
					c-0.161-0.047-0.314,0.03-0.373,0.13c-0.318,0.52-0.707,1.005-1.226,1.324c-0.587,0.368-1.337,0.554-2.254,0.554
					c-0.551,0-1.061-0.088-1.513-0.243c-0.457-0.164-0.852-0.397-1.185-0.688c-0.332-0.304-0.587-0.661-0.769-1.068
					c-0.181-0.401-0.271-0.846-0.271-1.328c0-1.304,0.438-2.28,1.3-2.94c0.865-0.662,2.181-0.992,3.948-0.992
					c0.404,0,0.811,0.033,1.221,0.097c0.406,0.063,0.692,0.107,0.849,0.142c0.047-0.308,0.071-0.566,0.071-0.787
					c0-0.555-0.14-0.964-0.416-1.225c-0.28-0.26-0.79-0.393-1.556-0.393c-0.692,0-1.384,0.083-2.04,0.252
					c-0.469,0.118-1.049,0.321-1.441,0.473c-0.341,0.136-0.443-0.185-0.443-0.185L66.293,13.123z M70.185,21.672
					c0.713,0,1.283-0.166,1.71-0.495c0.425-0.339,0.733-0.688,0.937-1.053v-1.371c-0.077-0.027-0.191-0.057-0.357-0.09
					c-0.157-0.028-0.332-0.061-0.525-0.092c-0.189-0.022-0.38-0.058-0.571-0.069c-0.187-0.015-0.36-0.021-0.512-0.021
					c-0.82,0-1.431,0.146-1.828,0.445c-0.396,0.298-0.594,0.66-0.594,1.106c0,0.542,0.165,0.954,0.471,1.234
					C69.232,21.535,69.65,21.672,70.185,21.672z"/>
			</g>
			<g>
				<path fill="#777777" d="M89.164,23.374c0,1.694-0.479,2.935-1.442,3.741c-0.962,0.797-2.33,1.197-4.09,1.197
					c-1.132,0-2.05-0.074-2.738-0.224c-0.696-0.157-1.229-0.326-1.604-0.517c0.184-0.58,0.326-1.045,0.42-1.382
					c0.096-0.351,0.167-0.605,0.208-0.784c0.101-0.384,0.468-0.235,0.468-0.235s0.42,0.195,0.916,0.374
					c0.493,0.185,1.099,0.277,1.809,0.277c0.602,0,1.097-0.06,1.492-0.174c0.393-0.124,0.703-0.283,0.939-0.521
					c0.225-0.224,0.393-0.493,0.486-0.815c0.091-0.32,0.141-0.679,0.141-1.073c0,0,0-0.101,0-0.271c0-0.07-0.031-0.183-0.109-0.243
					c-0.12-0.098-0.324-0.106-0.424-0.007c-0.248,0.26-0.564,0.446-0.931,0.565c-0.507,0.181-1.146,0.267-1.898,0.267
					c-1.563,0-2.729-0.429-3.513-1.288c-0.781-0.864-1.166-2.248-1.166-4.151c0-2.015,0.513-3.536,1.542-4.552
					c1.026-1.021,2.554-1.521,4.574-1.521c1.068,0,2.017,0.063,2.856,0.204c0.835,0.14,1.529,0.297,2.064,0.473V23.374z
					 M83.528,21.167c0.669,0,1.213-0.126,1.649-0.367c0.426-0.25,0.734-0.556,0.924-0.923v-4.939
					c-0.538-0.236-1.225-0.346-2.057-0.346c-0.884,0-1.573,0.259-2.048,0.779c-0.483,0.532-0.724,1.399-0.724,2.608
					c0,1.105,0.202,1.919,0.606,2.427C82.293,20.913,82.843,21.167,83.528,21.167z"/>
			</g>
			<g>
				<path fill="#777777" d="M91.653,18.087c0-1.892,0.506-3.384,1.51-4.455c1.003-1.087,2.439-1.618,4.306-1.618
					c0.973,0,1.831,0.149,2.558,0.46c0.723,0.304,1.33,0.726,1.813,1.273c0.482,0.547,0.841,1.189,1.086,1.923
					c0.237,0.739,0.359,1.536,0.359,2.415c0,0.932-0.134,1.772-0.396,2.524c-0.264,0.748-0.641,1.384-1.141,1.908
					c-0.491,0.525-1.104,0.933-1.824,1.208c-0.717,0.273-1.54,0.414-2.453,0.414c-0.993,0-1.854-0.147-2.577-0.458
					s-1.338-0.739-1.817-1.283c-0.48-0.545-0.839-1.184-1.072-1.92C91.767,19.746,91.653,18.949,91.653,18.087z M94.8,18.087
					c0,0.482,0.053,0.932,0.155,1.353c0.096,0.425,0.26,0.794,0.47,1.105c0.204,0.319,0.481,0.563,0.815,0.755
					c0.339,0.186,0.745,0.293,1.228,0.293c1.773,0,2.665-1.173,2.665-3.506c0-0.511-0.048-0.98-0.14-1.409
					c-0.097-0.432-0.243-0.803-0.462-1.115c-0.206-0.312-0.487-0.557-0.829-0.733c-0.344-0.17-0.758-0.26-1.231-0.26
					c-0.834,0-1.484,0.282-1.954,0.832C95.043,15.954,94.8,16.856,94.8,18.087z"/>
			</g>
			<g>
				<path fill="#777777" d="M105.482,20.746c0.372,0.14,0.775,0.324,0.98,0.404c0.27,0.096,0.558,0.192,0.873,0.282
					c0.311,0.084,0.633,0.162,0.962,0.221c0.33,0.058,0.654,0.076,0.992,0.076c0.513,0,0.908-0.076,1.189-0.23
					c0.285-0.164,0.427-0.467,0.427-0.897c0-0.351-0.186-0.608-0.569-0.775c-0.38-0.167-0.844-0.328-1.4-0.497
					c-0.406-0.112-0.832-0.251-1.278-0.412c-0.44-0.16-0.849-0.368-1.22-0.644c-0.373-0.267-0.681-0.624-0.923-1.063
					c-0.239-0.432-0.36-0.982-0.36-1.656c0-1.149,0.36-2.028,1.077-2.636c0.706-0.603,1.735-0.902,3.076-0.902
					c0.872,0,1.693,0.071,2.464,0.227c0.767,0.152,1.372,0.331,1.842,0.537l-0.339,2.051c0,0-0.068,0.404-0.474,0.27
					c-0.382-0.129-0.852-0.341-1.271-0.452c-0.596-0.158-1.194-0.238-1.807-0.238c-0.511,0-0.891,0.08-1.139,0.238
					c-0.247,0.152-0.372,0.414-0.372,0.797c0,0.33,0.191,0.585,0.58,0.751c0.384,0.175,0.857,0.335,1.409,0.497
					c0.406,0.111,0.828,0.248,1.277,0.405c0.448,0.146,0.853,0.363,1.215,0.618c0.365,0.267,0.669,0.606,0.909,1.023
					c0.239,0.409,0.355,0.931,0.355,1.562c0,1.221-0.39,2.169-1.192,2.838c-0.794,0.672-1.979,1.005-3.567,1.005
					c-0.861,0-1.663-0.08-2.407-0.228c-0.738-0.155-1.283-0.429-1.76-0.722c0,0,0-1.916,0-2.141
					C105.035,20.838,105.246,20.662,105.482,20.746z"/>
			</g>
			<path fill="#777777" d="M17.884,16.039c0.017,0.119,0.208,1.119,0.915,1.242c0.582,0.103,2.804,0.289,2.899,0.295
				c0.042,0.008,0.484,0.085,0.484,0.529v3.964c-0.329,0.156-0.708,0.274-1.134,0.37c-0.483,0.107-0.989,0.159-1.503,0.159
				c-0.834,0-1.611-0.132-2.316-0.375c-0.708-0.26-1.307-0.641-1.824-1.173c-0.506-0.522-0.916-1.212-1.206-2.021
				c-0.293-0.821-0.436-1.81-0.436-2.929c0-1.22,0.172-2.258,0.515-3.076c0.342-0.827,0.798-1.491,1.352-1.999
				c0.549-0.504,1.174-0.876,1.867-1.089c0.705-0.223,1.416-0.333,2.121-0.333c1.479,0,2.501,0.073,3.354,0.442l0.235,0.105
				l0.068-0.246l0.324-1.222l0.05-0.194l-0.187-0.073c-0.441-0.166-0.973-0.304-1.645-0.418c-0.648-0.115-1.477-0.164-2.458-0.164
				c-0.931,0-1.865,0.154-2.776,0.456c-0.927,0.294-1.786,0.788-2.543,1.451c-0.758,0.665-1.381,1.53-1.857,2.577
				c-0.475,1.04-0.72,2.305-0.72,3.759c0,1.388,0.2,2.614,0.591,3.644c0.391,1.036,0.939,1.912,1.636,2.595
				c0.697,0.683,1.522,1.197,2.446,1.522c0.936,0.322,1.953,0.485,3.021,0.485c0.429,0,0.866-0.03,1.335-0.091
				c0.472-0.067,0.91-0.147,1.317-0.248c0.426-0.103,0.835-0.235,1.212-0.39c0.4-0.173,0.728-0.365,1.005-0.58l0.081-0.067V15.79
				h-6.27L17.884,16.039z M35.618,12.722c-0.48-0.364-1.02-0.612-1.618-0.743c-0.567-0.12-1.161-0.185-1.752-0.185
				c-1.844,0-3.293,0.548-4.301,1.632c-1.004,1.072-1.51,2.646-1.51,4.661c0,0.92,0.11,1.789,0.334,2.552
				c0.233,0.778,0.576,1.427,1.054,1.987c0.473,0.546,1.084,0.975,1.819,1.265c0.739,0.304,1.604,0.446,2.585,0.446
				c0.907,0,1.757-0.117,2.532-0.342c0.774-0.228,1.439-0.547,1.971-0.948l0.167-0.116l-0.114-0.179l-0.733-1.157l-0.144-0.226
				c0,0-0.766,0.482-1.396,0.729c-0.647,0.245-1.162,0.348-1.717,0.348c-1.48,0-2.506-0.327-3.128-1.02
				c-0.629-0.694-1.034-1.746-1.103-2.856h8.531l0.028-0.186c0.041-0.279,0.075-0.585,0.087-0.919
				c0.017-0.29,0.021-0.571,0.021-0.823c0-0.988-0.145-1.814-0.445-2.43C36.491,13.583,36.093,13.078,35.618,12.722z M28.645,16.839
				c0.143-1.169,0.52-2.01,1.127-2.493c0.64-0.522,1.605-0.796,2.773-0.796c0.997,0,1.779,0.266,2.318,0.78
				c0.51,0.491,0.761,1.337,0.761,2.509H28.645z M50.46,15.614c-0.242-0.761-0.613-1.438-1.111-2.004
				c-0.498-0.574-1.126-1.022-1.864-1.339c-0.735-0.317-1.609-0.475-2.59-0.475c-0.936,0-1.781,0.147-2.504,0.432
				c-0.734,0.276-1.367,0.703-1.879,1.253c-0.505,0.538-0.9,1.211-1.163,1.99c-0.261,0.776-0.39,1.665-0.39,2.619
				c0,0.876,0.116,1.704,0.354,2.456c0.239,0.76,0.608,1.429,1.088,1.994c0.499,0.569,1.122,1.01,1.859,1.323
				c0.742,0.32,1.625,0.475,2.634,0.475c0.922,0,1.753-0.141,2.483-0.429c0.735-0.291,1.368-0.708,1.869-1.262
				c0.508-0.547,0.896-1.213,1.164-1.979c0.27-0.766,0.408-1.638,0.408-2.579C50.818,17.21,50.696,16.382,50.46,15.614z
				 M44.923,22.412c-0.722,0-1.335-0.123-1.818-0.366c-0.487-0.252-0.879-0.566-1.187-0.974c-0.31-0.399-0.533-0.857-0.674-1.371
				c-0.138-0.524-0.206-1.066-0.206-1.616c0-1.481,0.329-2.595,0.983-3.3c0.653-0.707,1.627-1.067,2.9-1.067
				c0.689,0,1.282,0.12,1.757,0.37c0.487,0.234,0.881,0.557,1.189,0.954c0.292,0.4,0.514,0.87,0.652,1.378
				c0.138,0.533,0.213,1.097,0.213,1.665C48.736,20.999,47.485,22.412,44.923,22.412z"/>
		</g>
	</g>
</g>
</svg>
